^E:\VS\KURSOVA2\KURSOVA2\CAFE.CPP|E:\VS\KURSOVA2\KURSOVA2\ENTERPRICE.CPP|E:\VS\KURSOVA2\KURSOVA2\KURSOVA2.CPP
E:\VS\KURSOVA2\KURSOVA2\DEBUG\VC140.PDB
E:\VS\KURSOVA2\KURSOVA2\DEBUG\VC140.IDB
E:\VS\KURSOVA2\KURSOVA2\DEBUG\ENTERPRICE.OBJ
E:\VS\KURSOVA2\KURSOVA2\DEBUG\KURSOVA2.OBJ
^E:\VS\KURSOVA2\KURSOVA2\CAFE.CPP
E:\VS\KURSOVA2\KURSOVA2\DEBUG\VC140.PDB
E:\VS\KURSOVA2\KURSOVA2\DEBUG\VC140.IDB
E:\VS\KURSOVA2\KURSOVA2\DEBUG\CAFE.OBJ
^E:\VS\KURSOVA2\KURSOVA2\ENTERPRICE.CPP
E:\VS\KURSOVA2\KURSOVA2\DEBUG\VC140.PDB
^E:\VS\KURSOVA2\KURSOVA2\KURSOVA2.CPP
E:\VS\KURSOVA2\KURSOVA2\DEBUG\VC140.PDB
E:\VS\KURSOVA2\KURSOVA2\DEBUG\VC140.IDB
^E:\VS\KURSOVA2\KURSOVA2\BOSS.CPP
E:\VS\KURSOVA2\KURSOVA2\DEBUG\VC140.PDB
E:\VS\KURSOVA2\KURSOVA2\DEBUG\VC140.IDB
E:\VS\KURSOVA2\KURSOVA2\DEBUG\BOSS.OBJ
^E:\VS\KURSOVA2\KURSOVA2\BOSS.CPP|E:\VS\KURSOVA2\KURSOVA2\CAFE.CPP|E:\VS\KURSOVA2\KURSOVA2\ENTERPRICE.CPP|E:\VS\KURSOVA2\KURSOVA2\KURSOVA2.CPP|E:\VS\KURSOVA2\KURSOVA2\PURCHASE.CPP
E:\VS\KURSOVA2\KURSOVA2\DEBUG\VC140.PDB
E:\VS\KURSOVA2\KURSOVA2\DEBUG\VC140.IDB
E:\VS\KURSOVA2\KURSOVA2\DEBUG\BOSS.OBJ
E:\VS\KURSOVA2\KURSOVA2\DEBUG\CAFE.OBJ
E:\VS\KURSOVA2\KURSOVA2\DEBUG\ENTERPRICE.OBJ
E:\VS\KURSOVA2\KURSOVA2\DEBUG\KURSOVA2.OBJ
E:\VS\KURSOVA2\KURSOVA2\DEBUG\PURCHASE.OBJ
^E:\VS\KURSOVA2\KURSOVA2\PURCHASE.CPP
E:\VS\KURSOVA2\KURSOVA2\DEBUG\VC140.PDB
E:\VS\KURSOVA2\KURSOVA2\DEBUG\VC140.IDB
E:\VS\KURSOVA2\KURSOVA2\DEBUG\PURCHASE.OBJ
^E:\VS\KURSOVA2\KURSOVA2\BOSS.CPP|E:\VS\KURSOVA2\KURSOVA2\CAFE.CPP
E:\VS\KURSOVA2\KURSOVA2\DEBUG\VC140.PDB
E:\VS\KURSOVA2\KURSOVA2\DEBUG\VC140.IDB
E:\VS\KURSOVA2\KURSOVA2\DEBUG\BOSS.OBJ
E:\VS\KURSOVA2\KURSOVA2\DEBUG\CAFE.OBJ
^E:\VS\KURSOVA2\KURSOVA2\KURSOVA2.CPP|E:\VS\KURSOVA2\KURSOVA2\PURCHASE.CPP
E:\VS\KURSOVA2\KURSOVA2\DEBUG\VC140.PDB
E:\VS\KURSOVA2\KURSOVA2\DEBUG\VC140.IDB
E:\VS\KURSOVA2\KURSOVA2\DEBUG\KURSOVA2.OBJ
E:\VS\KURSOVA2\KURSOVA2\DEBUG\PURCHASE.OBJ
^E:\VS\KURSOVA2\KURSOVA2\CAFE.CPP|E:\VS\KURSOVA2\KURSOVA2\KURSOVA2.CPP|E:\VS\KURSOVA2\KURSOVA2\PURCHASE.CPP
E:\VS\KURSOVA2\KURSOVA2\DEBUG\VC140.PDB
E:\VS\KURSOVA2\KURSOVA2\DEBUG\VC140.IDB
E:\VS\KURSOVA2\KURSOVA2\DEBUG\CAFE.OBJ
E:\VS\KURSOVA2\KURSOVA2\DEBUG\PURCHASE.OBJ
E:\VS\KURSOVA2\KURSOVA2\DEBUG\KURSOVA2.OBJ
^E:\VS\KURSOVA2\KURSOVA2\BOSS.CPP|E:\VS\KURSOVA2\KURSOVA2\KURSOVA2.CPP
E:\VS\KURSOVA2\KURSOVA2\DEBUG\VC140.PDB
E:\VS\KURSOVA2\KURSOVA2\DEBUG\VC140.IDB
E:\VS\KURSOVA2\KURSOVA2\DEBUG\BOSS.OBJ
E:\VS\KURSOVA2\KURSOVA2\DEBUG\KURSOVA2.OBJ
^E:\VS\KURSOVA2\KURSOVA2\BOSS.CPP|E:\VS\KURSOVA2\KURSOVA2\PURCHASE.CPP
E:\VS\KURSOVA2\KURSOVA2\DEBUG\VC140.PDB
E:\VS\KURSOVA2\KURSOVA2\DEBUG\VC140.IDB
E:\VS\KURSOVA2\KURSOVA2\DEBUG\BOSS.OBJ
E:\VS\KURSOVA2\KURSOVA2\DEBUG\PURCHASE.OBJ
^E:\VS\KURSOVA2\KURSOVA2\BOSS.CPP|E:\VS\KURSOVA2\KURSOVA2\CAFE.CPP|E:\VS\KURSOVA2\KURSOVA2\KURSOVA2.CPP
E:\VS\KURSOVA2\KURSOVA2\DEBUG\VC140.PDB
E:\VS\KURSOVA2\KURSOVA2\DEBUG\VC140.IDB
E:\VS\KURSOVA2\KURSOVA2\DEBUG\BOSS.OBJ
E:\VS\KURSOVA2\KURSOVA2\DEBUG\CAFE.OBJ
E:\VS\KURSOVA2\KURSOVA2\DEBUG\KURSOVA2.OBJ
^E:\VS\KURSOVA2\KURSOVA2\BOSS.CPP|E:\VS\KURSOVA2\KURSOVA2\CAFE.CPP|E:\VS\KURSOVA2\KURSOVA2\KURSOVA2.CPP|E:\VS\KURSOVA2\KURSOVA2\PURCHASE.CPP
E:\VS\KURSOVA2\KURSOVA2\DEBUG\VC140.PDB
E:\VS\KURSOVA2\KURSOVA2\DEBUG\VC140.IDB
E:\VS\KURSOVA2\KURSOVA2\DEBUG\BOSS.OBJ
E:\VS\KURSOVA2\KURSOVA2\DEBUG\CAFE.OBJ
E:\VS\KURSOVA2\KURSOVA2\DEBUG\PURCHASE.OBJ
E:\VS\KURSOVA2\KURSOVA2\DEBUG\KURSOVA2.OBJ
^E:\VS\KURSOVA2\KURSOVA2\BOSS.CPP|E:\VS\KURSOVA2\KURSOVA2\CAFE.CPP|E:\VS\KURSOVA2\KURSOVA2\PURCHASE.CPP
E:\VS\KURSOVA2\KURSOVA2\DEBUG\VC140.PDB
E:\VS\KURSOVA2\KURSOVA2\DEBUG\VC140.IDB
E:\VS\KURSOVA2\KURSOVA2\DEBUG\BOSS.OBJ
E:\VS\KURSOVA2\KURSOVA2\DEBUG\CAFE.OBJ
E:\VS\KURSOVA2\KURSOVA2\DEBUG\PURCHASE.OBJ
